…
## 2.8 Task {-}

Apply the `make_center()` function you just created to center all variables of the **mtcars** dataset using a functional that returns a data frame as output.


```r
map_df(mtcars, make_center)
```

```
## # A tibble: 32 × 11
##       mpg    cyl    disp    hp    drat       wt   qsec     vs     am   gear
##     <dbl>  <dbl>   <dbl> <dbl>   <dbl>    <dbl>  <dbl>  <dbl>  <dbl>  <dbl>
##  1  0.909 -0.188  -70.7  -36.7  0.303  -0.597   -1.39  -0.438  0.594  0.312
##  2  0.909 -0.188  -70.7  -36.7  0.303  -0.342   -0.829 -0.438  0.594  0.312
##  3  2.71  -2.19  -123.   -53.7  0.253  -0.897    0.761  0.562  0.594  0.312
##  4  1.31  -0.188   27.3  -36.7 -0.517  -0.00225  1.59   0.562 -0.406 -0.688
##  5 -1.39   1.81   129.    28.3 -0.447   0.223   -0.829 -0.438 -0.406 -0.688
##  6 -1.99  -0.188   -5.72 -41.7 -0.837   0.243    2.37   0.562 -0.406 -0.688
##  7 -5.79   1.81   129.    98.3 -0.387   0.353   -2.01  -0.438 -0.406 -0.688
##  8  4.31  -2.19   -84.0  -84.7  0.0934 -0.0272   2.15   0.562 -0.406  0.312
##  9  2.71  -2.19   -89.9  -51.7  0.323  -0.0673   5.05   0.562 -0.406  0.312
## 10 -0.891 -0.188  -63.1  -23.7  0.323   0.223    0.451  0.562 -0.406  0.312
## # ℹ 22 more rows
## # ℹ 1 more variable: carb <dbl>
```
…
