5. Merging Data | Data Cleaning and Visualisation using R
…
In ess, the cntry variable has multiple observations, and therefore, does **not* represent a unique key.

If cntry does not represent a unique key, can idno be used instead?

Code

ess %>% 
group_by(idno) %>% 
count() %>% 
filter(n > 1) 

## # A tibble: 4,244 × 2
## # Groups:   idno [4,244]
##     idno     n
##    <dbl> <int>
##  1    17     3
##  2    25     4
##  3    36     3
##  4    37     2
##  5    39     2
##  6    52     2
##  7    56     4
##  8    98     4
##  9   126     2
## 10   144     2
## # ℹ 4,234 more rows
…
